%YAML 1.1
%TAG !u! tag:unity3d.com,2011:
--- !u!1 &8907207556142021620
GameObject:
  m_ObjectHideFlags: 0
  m_CorrespondingSourceObject: {fileID: 0}
  m_PrefabInstance: {fileID: 0}
  m_PrefabAsset: {fileID: 0}
  serializedVersion: 6
  m_Component:
  - component: {fileID: 8513541127736462320}
  - component: {fileID: -7031634971316626116}
  - component: {fileID: -5938474987470727830}
  m_Layer: 0
  m_Name: Meteoritos
  m_TagString: Untagged
  m_Icon: {fileID: 0}
  m_NavMeshLayer: 0
  m_StaticEditorFlags: 0
  m_IsActive: 1
--- !u!4 &8513541127736462320
Transform:
  m_ObjectHideFlags: 0
  m_CorrespondingSourceObject: {fileID: 0}
  m_PrefabInstance: {fileID: 0}
  m_PrefabAsset: {fileID: 0}
  m_GameObject: {fileID: 8907207556142021620}
  m_LocalRotation: {x: 0, y: 0, z: 0, w: 1}
  m_LocalPosition: {x: 535.83563, y: 289.5769, z: -583.7518}
  m_LocalScale: {x: 1, y: 1, z: 1}
  m_ConstrainProportionsScale: 0
  m_Children:
  - {fileID: 4065907883258344536}
  m_Father: {fileID: 0}
  m_RootOrder: 0
  m_LocalEulerAnglesHint: {x: 0, y: 0, z: 0}
--- !u!54 &-7031634971316626116
Rigidbody:
  m_ObjectHideFlags: 0
  m_CorrespondingSourceObject: {fileID: 0}
  m_PrefabInstance: {fileID: 0}
  m_PrefabAsset: {fileID: 0}
  m_GameObject: {fileID: 8907207556142021620}
  serializedVersion: 2
  m_Mass: 1
  m_Drag: 0
  m_AngularDrag: 0.05
  m_UseGravity: 1
  m_IsKinematic: 0
  m_Interpolate: 0
  m_Constraints: 0
  m_CollisionDetection: 0
--- !u!65 &-5938474987470727830
BoxCollider:
  m_ObjectHideFlags: 0
  m_CorrespondingSourceObject: {fileID: 0}
  m_PrefabInstance: {fileID: 0}
  m_PrefabAsset: {fileID: 0}
  m_GameObject: {fileID: 8907207556142021620}
  m_Material: {fileID: 0}
  m_IsTrigger: 0
  m_Enabled: 1
  serializedVersion: 2
  m_Size: {x: 0.925354, y: 0.75024414, z: 0.94158936}
  m_Center: {x: -0.1399231, y: -0.012145996, z: 2.244049}
--- !u!1001 &4604852347530613683
PrefabInstance:
  m_ObjectHideFlags: 0
  serializedVersion: 2
  m_Modification:
    m_TransformParent: {fileID: 8513541127736462320}
    m_Modifications:
    - target: {fileID: -8679921383154817045, guid: b4f1e88718862e24ead6248c3639268b,
        type: 3}
      propertyPath: m_RootOrder
      value: 0
      objectReference: {fileID: 0}
    - target: {fileID: -8679921383154817045, guid: b4f1e88718862e24ead6248c3639268b,
        type: 3}
      propertyPath: m_LocalPosition.x
      value: -0.12640083
      objectReference: {fileID: 0}
    - target: {fileID: -8679921383154817045, guid: b4f1e88718862e24ead6248c3639268b,
        type: 3}
      propertyPath: m_LocalPosition.y
      value: -0.005746193
      objectReference: {fileID: 0}
    - target: {fileID: -8679921383154817045, guid: b4f1e88718862e24ead6248c3639268b,
        type: 3}
      propertyPath: m_LocalPosition.z
      value: 2.250775
      objectReference: {fileID: 0}
    - target: {fileID: -8679921383154817045, guid: b4f1e88718862e24ead6248c3639268b,
        type: 3}
      propertyPath: m_LocalRotation.w
      value: 1
      objectReference: {fileID: 0}
    - target: {fileID: -8679921383154817045, guid: b4f1e88718862e24ead6248c3639268b,
        type: 3}
      propertyPath: m_LocalRotation.x
      value: 0
      objectReference: {fileID: 0}
    - target: {fileID: -8679921383154817045, guid: b4f1e88718862e24ead6248c3639268b,
        type: 3}
      propertyPath: m_LocalRotation.y
      value: -0
      objectReference: {fileID: 0}
    - target: {fileID: -8679921383154817045, guid: b4f1e88718862e24ead6248c3639268b,
        type: 3}
      propertyPath: m_LocalRotation.z
      value: -0
      objectReference: {fileID: 0}
    - target: {fileID: -8679921383154817045, guid: b4f1e88718862e24ead6248c3639268b,
        type: 3}
      propertyPath: m_LocalEulerAnglesHint.x
      value: 0
      objectReference: {fileID: 0}
    - target: {fileID: -8679921383154817045, guid: b4f1e88718862e24ead6248c3639268b,
        type: 3}
      propertyPath: m_LocalEulerAnglesHint.y
      value: 0
      objectReference: {fileID: 0}
    - target: {fileID: -8679921383154817045, guid: b4f1e88718862e24ead6248c3639268b,
        type: 3}
      propertyPath: m_LocalEulerAnglesHint.z
      value: 0
      objectReference: {fileID: 0}
    - target: {fileID: 919132149155446097, guid: b4f1e88718862e24ead6248c3639268b,
        type: 3}
      propertyPath: m_Name
      value: Rock_01
      objectReference: {fileID: 0}
    m_RemovedComponents: []
  m_SourcePrefab: {fileID: 100100000, guid: b4f1e88718862e24ead6248c3639268b, type: 3}
--- !u!4 &4065907883258344536 stripped
Transform:
  m_CorrespondingSourceObject: {fileID: -8679921383154817045, guid: b4f1e88718862e24ead6248c3639268b,
    type: 3}
  m_PrefabInstance: {fileID: 4604852347530613683}
  m_PrefabAsset: {fileID: 0}
